<?xml version="1.0" encoding="UTF-8" standalone="no" ?>
<COLLADA xmlns="http://www.collada.org/2005/11/COLLADASchema" version="1.4.1">
    <asset>
        <contributor>
            <authoring_tool>SketchUp 17.2.2555</authoring_tool>
        </contributor>
        <created>2018-02-04T19:48:25Z</created>
        <modified>2018-02-04T19:48:25Z</modified>
        <unit meter="0.0254" name="inch" />
        <up_axis>Z_UP</up_axis>
    </asset>
    <library_cameras>
        <camera id="ID1" name="skp_camera_Last_Saved_SketchUp_View">
            <optics>
                <technique_common>
                    <perspective>
                        <yfov>35</yfov>
                        <aspect_ratio>0</aspect_ratio>
                        <znear>1</znear>
                        <zfar>1000</zfar>
                    </perspective>
                </technique_common>
            </optics>
        </camera>
    </library_cameras>
    <library_visual_scenes>
        <visual_scene id="ID2">
            <node name="SketchUp">
                <instance_geometry url="#ID3">
                    <bind_material>
                        <technique_common>
                            <instance_material symbol="Material2" target="#ID4">
                                <bind_vertex_input semantic="UVSET0" input_semantic="TEXCOORD" input_set="0" />
                            </instance_material>
                        </technique_common>
                    </bind_material>
                </instance_geometry>
                <node name="skp_camera_Last_Saved_SketchUp_View">
                    <matrix>0.6294696 -0.371432 0.6824999 68.03642 0.777025 0.3008979 -0.5528947 -15.74498 3.053113e-16 0.87835 0.4780181 27.21351 0 0 0 1</matrix>
                    <instance_camera url="#ID1" />
                </node>
            </node>
        </visual_scene>
    </library_visual_scenes>
    <library_geometries>
        <geometry id="ID3">
            <mesh>
                <source id="ID9">
                    <float_array id="ID13" count="1995">3.837679 15.74803 3.937008 -0.09932857 11.81102 3.937008 -0.09932857 15.74803 3.937008 3.837679 11.81102 3.937008 -0.09932857 15.74803 4.724409 3.837679 15.74803 3.937008 -0.09932857 15.74803 3.937008 19.1913 15.74803 3.937008 23.12831 15.74803 3.937008 38.48193 15.74803 3.937008 42.41894 15.74803 3.937008 42.41894 15.74803 4.724409 19.1913 15.74803 3.937008 19.1913 11.81102 3.937008 42.41894 11.81102 4.724409 38.48193 11.81102 3.937008 42.41894 11.81102 3.937008 23.12831 11.81102 3.937008 3.837679 11.81102 3.937008 19.1913 11.81102 3.937008 -0.09932857 11.81102 3.937008 -0.09932857 11.81102 4.724409 -0.09932857 15.74803 4.724409 -0.09932857 11.81102 3.937008 -0.09932857 11.81102 4.724409 -0.09932857 15.74803 3.937008 3.837679 15.74803 3.937008 -0.09932857 17.71654 3.937008 -0.09932857 15.74803 3.937008 3.837679 17.71654 3.937008 42.41894 11.81102 4.724409 -0.09932857 15.74803 4.724409 -0.09932857 11.81102 4.724409 42.41894 15.74803 4.724409 42.41894 15.74803 3.937008 42.41894 11.81102 4.724409 42.41894 11.81102 3.937008 42.41894 15.74803 4.724409 42.41894 15.74803 3.937008 38.48193 11.81102 3.937008 38.48193 15.74803 3.937008 42.41894 11.81102 3.937008 42.41894 15.74803 3.937008 38.48193 17.71654 3.937008 38.48193 15.74803 3.937008 42.41894 17.71654 3.937008 38.48193 15.74803 3.937008 23.12831 11.81102 3.937008 23.12831 15.74803 3.937008 38.48193 11.81102 3.937008 23.12831 15.74803 3.937008 19.1913 17.71654 3.937008 19.1913 15.74803 3.937008 23.12831 17.71654 3.937008 23.12831 15.74803 3.937008 19.1913 11.81102 3.937008 19.1913 15.74803 3.937008 23.12831 11.81102 3.937008 19.1913 3.937008 3.937008 19.1913 0 3.149606 19.1913 0 3.937008 19.1913 3.937008 3.149606 19.1913 5.905512 3.937008 19.1913 11.81102 3.149606 19.1913 9.84252 3.937008 19.1913 11.81102 3.937008 19.1913 15.74803 3.937008 19.1913 15.74803 3.149606 19.1913 17.71654 3.937008 19.1913 23.62205 3.149606 19.1913 21.65354 3.937008 19.1913 23.62205 3.937008 19.1913 27.55906 3.937008 19.1913 27.55906 3.149606 3.837679 3.937008 3.149606 3.837679 0 3.937008 3.837679 0 3.149606 3.837679 3.937008 3.937008 3.837679 5.905512 3.937008 3.837679 11.81102 3.149606 3.837679 9.84252 3.937008 3.837679 11.81102 3.937008 3.837679 15.74803 3.149606 3.837679 15.74803 3.937008 3.837679 23.62205 3.149606 3.837679 17.71654 3.937008 3.837679 21.65354 3.937008 3.837679 23.62205 3.937008 3.837679 27.55906 3.149606 3.837679 27.55906 3.937008 38.48193 9.84252 3.937008 42.41894 11.81102 3.937008 38.48193 11.81102 3.937008 42.41894 9.84252 3.937008 -0.09932857 9.84252 3.937008 3.837679 11.81102 3.937008 -0.09932857 11.81102 3.937008 3.837679 9.84252 3.937008 23.12831 9.84252 3.937008 19.1913 11.81102 3.937008 19.1913 9.84252 3.937008 23.12831 11.81102 3.937008 -0.09932857 3.937008 3.937008 -0.09932857 0 3.149606 -0.09932857 0 3.937008 -0.09932857 3.149606 3.149606 -0.09932857 3.937008 3.149606 -0.09932857 5.905512 3.937008 -0.09932857 11.81102 3.149606 -0.09932857 7.874016 3.937008 -0.09932857 9.84252 3.937008 -0.09932857 11.81102 3.937008 -0.09932857 15.74803 3.937008 -0.09932857 15.74803 3.149606 -0.09932857 17.71654 3.937008 -0.09932857 23.62205 3.149606 -0.09932857 21.65354 3.937008 -0.09932857 23.62205 3.937008 -0.09932857 27.55906 3.937008 -0.09932857 27.55906 3.149606 42.41894 17.71654 4.724409 38.48193 17.71654 3.937008 42.41894 17.71654 3.937008 23.12831 17.71654 3.937008 19.1913 17.71654 3.937008 3.837679 17.71654 3.937008 -0.09932857 17.71654 3.937008 -0.09932857 17.71654 4.724409 42.41894 3.937008 3.149606 42.41894 0 3.937008 42.41894 0 3.149606 42.41894 3.937008 3.937008 42.41894 11.81102 3.149606 42.41894 5.905512 3.937008 42.41894 9.84252 3.937008 42.41894 11.81102 3.937008 42.41894 15.74803 3.149606 42.41894 15.74803 3.937008 42.41894 23.62205 3.149606 42.41894 17.71654 3.937008 42.41894 21.65354 3.937008 42.41894 23.62205 3.937008 42.41894 27.55906 3.149606 42.41894 27.55906 3.937008 38.48193 3.937008 3.937008 38.48193 0 3.149606 38.48193 0 3.937008 38.48193 3.937008 3.149606 38.48193 5.905512 3.937008 38.48193 11.81102 3.149606 38.48193 9.84252 3.937008 38.48193 11.81102 3.937008 38.48193 15.74803 3.937008 38.48193 15.74803 3.149606 38.48193 17.71654 3.937008 38.48193 23.62205 3.149606 38.48193 21.65354 3.937008 38.48193 23.62205 3.937008 38.48193 27.55906 3.937008 38.48193 27.55906 3.149606 23.12831 3.937008 3.149606 23.12831 0 3.937008 23.12831 0 3.149606 23.12831 3.937008 3.937008 23.12831 5.905512 3.937008 23.12831 11.81102 3.149606 23.12831 9.84252 3.937008 23.12831 11.81102 3.937008 23.12831 15.74803 3.149606 23.12831 15.74803 3.937008 23.12831 23.62205 3.149606 23.12831 17.71654 3.937008 23.12831 21.65354 3.937008 23.12831 23.62205 3.937008 23.12831 27.55906 3.149606 23.12831 27.55906 3.937008 23.12831 3.937008 3.149606 19.1913 0 3.149606 19.1913 3.937008 3.149606 23.12831 0 3.149606 19.1913 0 1.574803 19.1913 3.937008 1.574803 23.12831 0 3.937008 19.1913 0 3.149606 23.12831 0 3.149606 19.1913 0 3.937008 3.837679 3.937008 3.937008 19.1913 0 3.937008 3.837679 0 3.937008 19.1913 3.937008 3.937008 23.12831 3.937008 3.937008 19.1913 5.905512 3.937008 19.1913 3.937008 3.937008 23.12831 5.905512 3.937008 3.837679 9.84252 3.937008 19.1913 5.905512 3.937008 3.837679 5.905512 3.937008 19.1913 9.84252 3.937008 3.837679 21.65354 3.937008 19.1913 17.71654 3.937008 3.837679 17.71654 3.937008 19.1913 21.65354 3.937008 23.12831 21.65354 3.937008 19.1913 23.62205 3.937008 19.1913 21.65354 3.937008 23.12831 23.62205 3.937008 19.1913 27.55906 3.937008 3.837679 23.62205 3.937008 3.837679 27.55906 3.937008 19.1913 23.62205 3.937008 19.1913 27.55906 3.937008 23.12831 27.55906 3.149606 19.1913 27.55906 3.149606 23.12831 27.55906 3.937008 23.12831 27.55906 3.149606 19.1913 23.62205 3.149606 19.1913 27.55906 3.149606 23.12831 23.62205 3.149606 19.1913 23.62205 1.574803 19.1913 27.55906 1.574803 23.12831 23.62205 3.149606 19.1913 15.74803 3.149606 19.1913 23.62205 3.149606 23.12831 15.74803 3.149606 23.12831 15.74803 3.149606 19.1913 11.81102 3.149606 19.1913 15.74803 3.149606 23.12831 11.81102 3.149606 19.1913 11.81102 1.574803 19.1913 15.74803 1.574803 3.837679 3.937008 3.937008 -0.09932857 5.905512 3.937008 -0.09932857 3.937008 3.937008 3.837679 5.905512 3.937008 3.837679 0 3.937008 -0.09932857 0 3.149606 3.837679 0 3.149606 -0.09932857 0 3.937008 3.837679 3.937008 3.149606 -0.09932857 3.149606 3.149606 -0.09932857 3.937008 3.149606 3.837679 0 3.149606 -0.09932857 0 3.149606 3.837679 3.937008 1.574803 3.837679 0 3.149606 3.837679 0 1.574803 3.837679 3.937008 3.149606 3.837679 11.81102 3.149606 -0.09932857 3.937008 3.149606 -0.09932857 11.81102 3.149606 3.837679 3.937008 3.149606 3.837679 15.74803 3.149606 -0.09932857 15.74803 3.149606 3.837679 15.74803 1.574803 3.837679 11.81102 3.149606 3.837679 11.81102 1.574803 3.837679 15.74803 3.149606 3.837679 23.62205 3.149606 -0.09932857 15.74803 3.149606 -0.09932857 23.62205 3.149606 3.837679 15.74803 3.149606 -0.02128469 27.55906 3.149606 -0.09932857 23.62205 3.149606 -0.09932857 27.55906 3.149606 3.837679 23.62205 3.149606 3.837679 27.55906 3.149606 3.837679 27.38408 1.574803 3.837679 23.62205 3.149606 3.837679 23.62205 1.574803 3.837679 27.55906 3.149606 3.837679 27.55906 1.574803 -0.09932857 27.55906 3.937008 -0.02128469 27.55906 3.149606 -0.09932857 27.55906 3.149606 3.837679 27.55906 3.149606 3.837679 27.55906 3.937008 3.837679 21.65354 3.937008 -0.09932857 23.62205 3.937008 -0.09932857 21.65354 3.937008 3.837679 23.62205 3.937008 -0.09932857 9.84252 4.724409 3.837679 9.84252 3.937008 -0.09932857 9.84252 3.937008 19.1913 9.84252 3.937008 23.12831 9.84252 3.937008 42.41894 9.84252 3.937008 38.48193 9.84252 3.937008 42.41894 9.84252 4.724409 -0.09932857 27.55906 4.724409 -0.09932857 23.62205 3.937008 -0.09932857 23.62205 4.724409 -0.09932857 27.55906 3.937008 -0.09932857 27.55906 3.149606 -0.09932857 23.62205 1.574803 -0.09932857 23.62205 3.149606 -0.09932857 27.55906 1.574803 -0.09932857 15.74803 3.149606 -0.09932857 11.81102 1.574803 -0.09932857 11.81102 3.149606 -0.09932857 15.74803 1.574803 -0.09932857 3.149606 3.149606 -0.09932857 0 1.574803 -0.09932857 0 3.149606 -0.09932857 3.937008 1.574803 -0.09932857 3.937008 3.149606 -0.09932857 3.937008 4.724409 -0.09932857 0 3.937008 -0.09932857 0 4.724409 -0.09932857 3.937008 3.937008 -0.09932857 9.84252 4.724409 -0.09932857 5.905512 3.937008 -0.09932857 5.905512 4.724409 -0.09932857 7.874016 3.937008 -0.09932857 9.84252 3.937008 -0.09932857 21.65354 4.724409 -0.09932857 17.71654 3.937008 -0.09932857 17.71654 4.724409 -0.09932857 21.65354 3.937008 -0.09932857 21.65354 3.937008 -0.09932857 17.71654 3.937008 23.12831 21.65354 3.937008 23.12831 17.71654 3.937008 38.48193 21.65354 3.937008 38.48193 17.71654 3.937008 42.41894 21.65354 3.937008 42.41894 17.71654 3.937008 42.41894 21.65354 3.937008 42.41894 17.71654 4.724409 42.41894 17.71654 3.937008 42.41894 21.65354 4.724409 42.41894 17.71654 4.724409 -0.09932857 21.65354 4.724409 -0.09932857 17.71654 4.724409 42.41894 21.65354 4.724409 38.48193 27.55906 3.937008 42.41894 27.55906 3.149606 38.48193 27.55906 3.149606 42.41894 27.55906 3.937008 42.41894 27.55906 3.937008 42.41894 23.62205 4.724409 42.41894 23.62205 3.937008 42.41894 27.55906 4.724409 42.41894 21.65354 3.937008 38.48193 23.62205 3.937008 38.48193 21.65354 3.937008 42.41894 23.62205 3.937008 42.41894 9.84252 3.937008 42.41894 5.905512 4.724409 42.41894 5.905512 3.937008 42.41894 9.84252 4.724409 38.48193 3.937008 3.937008 42.41894 5.905512 3.937008 38.48193 5.905512 3.937008 42.41894 3.937008 3.937008 42.41894 3.937008 3.937008 42.41894 0 4.724409 42.41894 0 3.937008 42.41894 3.937008 4.724409 42.41894 0 3.937008 38.48193 0 3.149606 42.41894 0 3.149606 38.48193 0 3.937008 42.41894 3.937008 3.149606 38.48193 0 3.149606 38.48193 3.937008 3.149606 42.41894 0 3.149606 42.41894 3.937008 1.574803 42.41894 0 3.149606 42.41894 0 1.574803 42.41894 3.937008 3.149606 42.41894 11.81102 3.149606 38.48193 11.81102 3.149606 42.41894 15.74803 3.149606 38.48193 15.74803 3.149606 42.41894 15.74803 1.574803 42.41894 11.81102 3.149606 42.41894 11.81102 1.574803 42.41894 15.74803 3.149606 42.41894 23.62205 3.149606 38.48193 23.62205 3.149606 42.41894 27.55906 3.149606 38.48193 27.55906 3.149606 42.41894 27.55906 1.574803 42.41894 23.62205 3.149606 42.41894 23.62205 1.574803 42.41894 27.55906 3.149606 38.48193 27.55906 3.149606 38.48193 23.62205 1.574803 38.48193 23.62205 3.149606 38.48193 27.55906 1.574803 38.48193 15.74803 3.149606 38.48193 11.81102 1.574803 38.48193 11.81102 3.149606 38.48193 15.74803 1.574803 38.48193 3.937008 3.149606 38.48193 0 1.574803 38.48193 0 3.149606 38.48193 3.937008 1.574803 38.48193 3.937008 3.937008 23.12831 0 3.937008 23.12831 3.937008 3.937008 38.48193 0 3.937008 38.48193 9.84252 3.937008 23.12831 5.905512 3.937008 23.12831 9.84252 3.937008 38.48193 5.905512 3.937008 38.48193 27.55906 3.937008 23.12831 23.62205 3.937008 23.12831 27.55906 3.937008 38.48193 23.62205 3.937008 23.12831 27.55906 1.574803 23.12831 23.62205 3.149606 23.12831 23.62205 1.574803 23.12831 27.55906 3.149606 23.12831 3.937008 1.574803 23.12831 0 3.149606 23.12831 0 1.574803 23.12831 3.937008 3.149606 23.12831 15.74803 1.574803 23.12831 11.81102 3.149606 23.12831 11.81102 1.574803 23.12831 15.74803 3.149606 23.12831 3.937008 1.574803 19.1913 0 1.574803 19.1913 3.937008 1.574803 23.12831 0 1.574803 19.1913 0 0.7874016 19.1913 27.55906 0.7874016 19.1913 0 1.574803 23.12831 0 1.574803 19.1913 3.937008 3.149606 23.12831 3.937008 1.574803 19.1913 3.937008 1.574803 23.12831 3.937008 3.149606 42.41894 0 4.724409 -0.09932857 0 4.724409 -0.09932857 3.937008 4.724409 3.837679 3.937008 3.937008 -0.09932857 3.937008 3.937008 19.1913 3.937008 3.937008 23.12831 3.937008 3.937008 38.48193 3.937008 3.937008 42.41894 3.937008 3.937008 42.41894 3.937008 4.724409 -0.09932857 0 3.937008 -0.09932857 3.937008 3.937008 42.41894 5.905512 4.724409 38.48193 5.905512 3.937008 42.41894 5.905512 3.937008 23.12831 5.905512 3.937008 19.1913 5.905512 3.937008 3.837679 5.905512 3.937008 -0.09932857 5.905512 4.724409 -0.09932857 5.905512 3.937008 23.12831 9.84252 3.937008 19.1913 5.905512 3.937008 19.1913 9.84252 3.937008 23.12831 5.905512 3.937008 -0.09932857 9.84252 3.937008 -0.09932857 5.905512 3.937008 -0.09932857 7.874016 3.937008 3.837679 5.905512 3.937008 3.837679 9.84252 3.937008 -0.09932857 21.65354 4.724409 3.837679 21.65354 3.937008 -0.09932857 21.65354 3.937008 19.1913 21.65354 3.937008 23.12831 21.65354 3.937008 38.48193 21.65354 3.937008 42.41894 21.65354 3.937008 42.41894 21.65354 4.724409 42.41894 23.62205 4.724409 38.48193 23.62205 3.937008 42.41894 23.62205 3.937008 23.12831 23.62205 3.937008 19.1913 23.62205 3.937008 3.837679 23.62205 3.937008 -0.09932857 23.62205 3.937008 -0.09932857 23.62205 4.724409 -0.09932857 27.55906 4.724409 42.41894 27.55906 4.724409 -0.09932857 23.62205 3.937008 -0.09932857 27.55906 3.937008 23.12831 27.55906 1.574803 19.1913 27.55906 1.574803 23.12831 23.62205 3.149606 19.1913 23.62205 1.574803 23.12831 23.62205 1.574803 19.1913 23.62205 3.149606 23.12831 27.55906 1.574803 19.1913 23.62205 1.574803 19.1913 27.55906 1.574803 23.12831 23.62205 1.574803 19.1913 15.74803 3.149606 23.12831 15.74803 1.574803 19.1913 15.74803 1.574803 23.12831 15.74803 3.149606 23.12831 15.74803 1.574803 19.1913 11.81102 1.574803 19.1913 15.74803 1.574803 23.12831 11.81102 1.574803 23.12831 11.81102 3.149606 19.1913 11.81102 1.574803 23.12831 11.81102 1.574803 19.1913 11.81102 3.149606 -0.09932857 0 1.574803 3.837679 0 1.574803 3.837679 3.937008 1.574803 -0.09932857 0 1.574803 -0.09932857 3.937008 1.574803 3.837679 0 1.574803 3.837679 23.62205 0.7874016 3.837679 0 1.574803 3.837679 0 0.7874016 3.837679 3.937008 1.574803 3.837679 11.81102 1.574803 3.837679 15.74803 1.574803 3.837679 23.62205 1.574803 3.837679 27.55906 0.7874016 3.837679 27.38408 1.574803 3.837679 27.55906 1.574803 -0.09932857 3.937008 3.149606 3.837679 3.937008 1.574803 -0.09932857 3.937008 1.574803 3.837679 3.937008 3.149606 3.837679 11.81102 3.149606 -0.09932857 11.81102 1.574803 3.837679 11.81102 1.574803 -0.09932857 11.81102 3.149606 3.837679 15.74803 1.574803 -0.09932857 11.81102 1.574803 -0.09932857 15.74803 1.574803 3.837679 11.81102 1.574803 -0.09932857 15.74803 3.149606 3.837679 15.74803 1.574803 -0.09932857 15.74803 1.574803 3.837679 15.74803 3.149606 3.837679 23.62205 3.149606 -0.09932857 23.62205 1.574803 3.837679 23.62205 1.574803 -0.09932857 23.62205 3.149606 3.837679 27.38408 1.574803 -0.09932857 23.62205 1.574803 -0.09932857 27.55906 1.574803 3.837679 23.62205 1.574803 3.837679 27.55906 1.574803 3.837679 27.55906 1.574803 -0.09932857 27.55906 1.574803 42.41894 9.84252 3.937008 38.48193 5.905512 3.937008 38.48193 9.84252 3.937008 42.41894 5.905512 3.937008 42.41894 5.905512 4.724409 -0.09932857 9.84252 4.724409 -0.09932857 5.905512 4.724409 42.41894 9.84252 4.724409 42.41894 23.62205 4.724409 -0.09932857 27.55906 4.724409 -0.09932857 23.62205 4.724409 42.41894 27.55906 4.724409 -0.09932857 3.937008 1.574803 -0.09932857 0 0.7874016 -0.09932857 0 1.574803 -0.09932857 27.55906 0.7874016 -0.09932857 11.81102 1.574803 -0.09932857 15.74803 1.574803 -0.09932857 23.62205 1.574803 -0.09932857 27.55906 1.574803 42.41894 0 4.724409 -0.09932857 3.937008 4.724409 -0.09932857 0 4.724409 42.41894 3.937008 4.724409 42.41894 27.55906 1.574803 38.48193 27.55906 1.574803 42.41894 27.55906 3.937008 42.41894 23.62205 3.937008 42.41894 3.937008 3.937008 42.41894 0 3.937008 38.48193 0 1.574803 42.41894 0 1.574803 42.41894 3.937008 1.574803 38.48193 0 1.574803 38.48193 3.937008 1.574803 42.41894 0 1.574803 42.41894 27.55906 0.7874016 42.41894 0 0.7874016 38.48193 3.937008 3.149606 42.41894 3.937008 1.574803 38.48193 3.937008 1.574803 42.41894 3.937008 3.149606 42.41894 11.81102 3.149606 38.48193 11.81102 1.574803 42.41894 11.81102 1.574803 38.48193 11.81102 3.149606 42.41894 15.74803 1.574803 38.48193 11.81102 1.574803 38.48193 15.74803 1.574803 42.41894 11.81102 1.574803 38.48193 15.74803 3.149606 42.41894 15.74803 1.574803 38.48193 15.74803 1.574803 42.41894 15.74803 3.149606 42.41894 23.62205 3.149606 38.48193 23.62205 1.574803 42.41894 23.62205 1.574803 38.48193 23.62205 3.149606 42.41894 27.55906 1.574803 38.48193 23.62205 1.574803 38.48193 27.55906 1.574803 42.41894 23.62205 1.574803 38.48193 0 0.7874016 38.48193 27.55906 0.7874016 23.12831 27.55906 0.7874016 23.12831 0 0.7874016 23.12831 27.55906 0.7874016 19.1913 27.55906 0.7874016 23.12831 27.55906 0.7874016 19.1913 0 0.7874016 19.1913 27.55906 0.7874016 23.12831 0 0.7874016 19.1913 0 0.7874016 23.12831 0 0.7874016 23.12831 3.937008 1.574803 19.1913 11.81102 1.574803 19.1913 3.937008 1.574803 23.12831 11.81102 1.574803 23.12831 15.74803 1.574803 19.1913 23.62205 1.574803 19.1913 15.74803 1.574803 23.12831 23.62205 1.574803 1.869175 0 0.7874016 3.837679 0 0.7874016 -0.09932857 0 0.7874016 -0.09932857 27.55906 0.7874016 1.869175 0 0.7874016 -0.09932857 0 0.7874016 3.837679 27.55906 0.7874016 3.837679 0 0.7874016 3.837679 23.62205 0.7874016 3.837679 27.55906 0.7874016 -0.09932857 27.55906 0.7874016 3.837679 15.74803 1.574803 -0.09932857 23.62205 1.574803 -0.09932857 15.74803 1.574803 3.837679 23.62205 1.574803 3.837679 3.937008 1.574803 -0.09932857 11.81102 1.574803 -0.09932857 3.937008 1.574803 3.837679 11.81102 1.574803 42.41894 27.55906 0.7874016 38.48193 27.55906 0.7874016 38.48193 0 0.7874016 42.41894 0 0.7874016 42.41894 27.55906 0.7874016 38.48193 0 0.7874016 38.48193 27.55906 0.7874016 42.41894 0 0.7874016 42.41894 15.74803 1.574803 38.48193 23.62205 1.574803 38.48193 15.74803 1.574803 42.41894 23.62205 1.574803 42.41894 3.937008 1.574803 38.48193 11.81102 1.574803 38.48193 3.937008 1.574803 42.41894 11.81102 1.574803</float_array>
                    <technique_common>
                        <accessor count="665" source="#ID13" stride="3">
                            <param name="X" type="float" />
                            <param name="Y" type="float" />
                            <param name="Z" type="float" />
                        </accessor>
                    </technique_common>
                </source>
                <source id="ID10">
                    <float_array id="ID14" count="1995">0 0 -1 0 0 -1 0 0 -1 0 0 -1 -0 1 -0 -0 1 -0 -0 1 -0 -0 1 -0 -0 1 -0 -0 1 -0 -0 1 -0 -0 1 -0 0 0 -1 0 0 -1 0 -1 0 0 -1 0 0 -1 0 0 -1 0 0 -1 0 0 -1 0 0 -1 0 0 -1 0 -1 0 0 -1 0 0 -1 0 0 -1 0 0 -0 -0 1 -0 -0 1 -0 -0 1 -0 -0 1 -0 -0 1 -0 -0 1 -0 -0 1 -0 -0 1 1 -1.804779e-15 -0 1 -1.804779e-15 -0 1 -1.804779e-15 -0 1 -1.804779e-15 -0 0 0 -1 0 0 -1 0 0 -1 0 0 -1 -0 -0 1 -0 -0 1 -0 -0 1 -0 -0 1 -2.892407e-17 -1.127987e-16 -1 -2.892407e-17 -1.127987e-16 -1 -2.892407e-17 -1.127987e-16 -1 -2.892407e-17 -1.127987e-16 -1 -0 -0 1 -0 -0 1 -0 -0 1 -0 -0 1 1.127987e-16 -1.127987e-16 -1 1.127987e-16 -1.127987e-16 -1 1.127987e-16 -1.127987e-16 -1 1.127987e-16 -1.127987e-16 -1 -1 0 0 -1 0 0 -1 0 0 -1 0 0 -1 0 0 -1 0 0 -1 0 0 -1 0 0 -1 0 0 -1 0 0 -1 0 0 -1 0 0 -1 0 0 -1 0 0 -1 0 0 -1 0 0 1 5.308172e-18 3.759955e-16 1 5.308172e-18 3.759955e-16 1 5.308172e-18 3.759955e-16 1 5.308172e-18 3.759955e-16 1 5.308172e-18 3.759955e-16 1 5.308172e-18 3.759955e-16 1 5.308172e-18 3.759955e-16 1 5.308172e-18 3.759955e-16 1 5.308172e-18 3.759955e-16 1 5.308172e-18 3.759955e-16 1 5.308172e-18 3.759955e-16 1 5.308172e-18 3.759955e-16 1 5.308172e-18 3.759955e-16 1 5.308172e-18 3.759955e-16 1 5.308172e-18 3.759955e-16 1 5.308172e-18 3.759955e-16 -0 -0 1 -0 -0 1 -0 -0 1 -0 -0 1 -0 -0 1 -0 -0 1 -0 -0 1 -0 -0 1 -1.127987e-16 2.255973e-16 1 -1.127987e-16 2.255973e-16 1 -1.127987e-16 2.255973e-16 1 -1.127987e-16 2.255973e-16 1 -1 1.031067e-16 -2.355223e-15 -1 1.031067e-16 -2.355223e-15 -1 1.031067e-16 -2.355223e-15 -1 1.031067e-16 -2.355223e-15 -1 1.031067e-16 -2.355223e-15 -1 1.031067e-16 -2.355223e-15 -1 1.031067e-16 -2.355223e-15 -1 1.031067e-16 -2.355223e-15 -1 1.031067e-16 -2.355223e-15 -1 1.031067e-16 -2.355223e-15 -1 1.031067e-16 -2.355223e-15 -1 1.031067e-16 -2.355223e-15 -1 1.031067e-16 -2.355223e-15 -1 1.031067e-16 -2.355223e-15 -1 1.031067e-16 -2.355223e-15 -1 1.031067e-16 -2.355223e-15 -1 1.031067e-16 -2.355223e-15 -1 1.031067e-16 -2.355223e-15 0 -1 0 0 -1 0 0 -1 0 0 -1 0 0 -1 0 0 -1 0 0 -1 0 0 -1 0 1 1.061634e-17 -2.707168e-15 1 1.061634e-17 -2.707168e-15 1 1.061634e-17 -2.707168e-15 1 1.061634e-17 -2.707168e-15 1 1.061634e-17 -2.707168e-15 1 1.061634e-17 -2.707168e-15 1 1.061634e-17 -2.707168e-15 1 1.061634e-17 -2.707168e-15 1 1.061634e-17 -2.707168e-15 1 1.061634e-17 -2.707168e-15 1 1.061634e-17 -2.707168e-15 1 1.061634e-17 -2.707168e-15 1 1.061634e-17 -2.707168e-15 1 1.061634e-17 -2.707168e-15 1 1.061634e-17 -2.707168e-15 1 1.061634e-17 -2.707168e-15 -1 -1.008553e-15 2.255973e-14 -1 -1.008553e-15 2.255973e-14 -1 -1.008553e-15 2.255973e-14 -1 -1.008553e-15 2.255973e-14 -1 -1.008553e-15 2.255973e-14 -1 -1.008553e-15 2.255973e-14 -1 -1.008553e-15 2.255973e-14 -1 -1.008553e-15 2.255973e-14 -1 -1.008553e-15 2.255973e-14 -1 -1.008553e-15 2.255973e-14 -1 -1.008553e-15 2.255973e-14 -1 -1.008553e-15 2.255973e-14 -1 -1.008553e-15 2.255973e-14 -1 -1.008553e-15 2.255973e-14 -1 -1.008553e-15 2.255973e-14 -1 -1.008553e-15 2.255973e-14 1 4.9366e-16 1.308464e-14 1 4.9366e-16 1.308464e-14 1 4.9366e-16 1.308464e-14 1 4.9366e-16 1.308464e-14 1 4.9366e-16 1.308464e-14 1 4.9366e-16 1.308464e-14 1 4.9366e-16 1.308464e-14 1 4.9366e-16 1.308464e-14 1 4.9366e-16 1.308464e-14 1 4.9366e-16 1.308464e-14 1 4.9366e-16 1.308464e-14 1 4.9366e-16 1.308464e-14 1 4.9366e-16 1.308464e-14 1 4.9366e-16 1.308464e-14 1 4.9366e-16 1.308464e-14 1 4.9366e-16 1.308464e-14 0 0 -1 0 0 -1 0 0 -1 0 0 -1 -1 0 0 -1 0 0 0 -1 0 0 -1 0 0 -1 0 0 -1 0 0 0 -1 0 0 -1 0 0 -1 0 0 -1 -0 -0 1 -0 -0 1 -0 -0 1 -0 -0 1 2.892407e-17 -1.127987e-16 -1 2.892407e-17 -1.127987e-16 -1 2.892407e-17 -1.127987e-16 -1 2.892407e-17 -1.127987e-16 -1 0 0 -1 0 0 -1 0 0 -1 0 0 -1 -0 -0 1 -0 -0 1 -0 -0 1 -0 -0 1 0 0 -1 0 0 -1 0 0 -1 0 0 -1 -0 1 -0 -0 1 -0 -0 1 -0 -0 1 -0 1.127987e-16 1.127987e-16 -1 1.127987e-16 1.127987e-16 -1 1.127987e-16 1.127987e-16 -1 1.127987e-16 1.127987e-16 -1 -1 0 0 -1 0 0 1.127987e-16 -5.639933e-17 -1 1.127987e-16 -5.639933e-17 -1 1.127987e-16 -5.639933e-17 -1 1.127987e-16 -5.639933e-17 -1 0 0 -1 0 0 -1 0 0 -1 0 0 -1 -1 0 0 -1 0 0 -1.127987e-16 2.255973e-16 1 -1.127987e-16 2.255973e-16 1 -1.127987e-16 2.255973e-16 1 -1.127987e-16 2.255973e-16 1 0 -1 0 0 -1 0 0 -1 0 0 -1 0 5.675404e-17 1.915449e-16 -1 5.675404e-17 1.915449e-16 -1 5.675404e-17 1.915449e-16 -1 5.675404e-17 1.915449e-16 -1 5.675404e-17 1.915449e-16 -1 1 -1.127987e-16 2.819966e-16 1 -1.127987e-16 2.819966e-16 1 -1.127987e-16 2.819966e-16 1 -1.127987e-16 2.819966e-16 0 0 -1 0 0 -1 0 0 -1 0 0 -1 0 0 -1 0 0 -1 1 -0 -0 1 -0 -0 1 -0 -0 1 -0 -0 -8.143064e-34 -1.127987e-16 -1 -8.143064e-34 -1.127987e-16 -1 -8.143064e-34 -1.127987e-16 -1 -8.143064e-34 -1.127987e-16 -1 0 0 -1 0 0 -1 0 0 -1 0 0 -1 0 0 -1 1 -6.018756e-17 1.651488e-16 1 -6.018756e-17 1.651488e-16 1 -6.018756e-17 1.651488e-16 1 -6.018756e-17 1.651488e-16 1 -6.018756e-17 1.651488e-16 -0 1 -0 -0 1 -0 -0 1 -0 -0 1 -0 -0 1 -0 -0 -0 1 -0 -0 1 -0 -0 1 -0 -0 1 -0 1 -0 -0 1 -0 -0 1 -0 -0 1 -0 -0 1 -0 -0 1 -0 -0 1 -0 -0 1 -0 -1 0 0 -1 0 0 -1 0 0 -1 0 0 -1 0 0 -1 0 0 -1 0 0 -1 0 0 -1 0 0 -1 0 0 -1 0 0 -1 0 0 -1 5.107864e-16 1.376286e-15 -1 5.107864e-16 1.376286e-15 -1 5.107864e-16 1.376286e-15 -1 5.107864e-16 1.376286e-15 -1 5.107864e-16 1.376286e-15 -1 0 0 -1 0 0 -1 0 0 -1 0 0 -1 9.023893e-16 7.519911e-16 -1 9.023893e-16 7.519911e-16 -1 9.023893e-16 7.519911e-16 -1 9.023893e-16 7.519911e-16 -1 9.023893e-16 7.519911e-16 -1 9.023893e-16 0 -1 9.023893e-16 0 -1 9.023893e-16 0 -1 9.023893e-16 0 0 0 -1 0 0 -1 0 0 -1 0 0 -1 0 0 -1 0 0 -1 0 0 -1 0 0 -1 1 1.804779e-15 -0 1 1.804779e-15 -0 1 1.804779e-15 -0 1 1.804779e-15 -0 -0 -0 1 -0 -0 1 -0 -0 1 -0 -0 1 -0 1 -0 -0 1 -0 -0 1 -0 -0 1 -0 1 -0 -0 1 -0 -0 1 -0 -0 1 -0 -0 -0 -0 1 -0 -0 1 -0 -0 1 -0 -0 1 1 1.804779e-15 -0 1 1.804779e-15 -0 1 1.804779e-15 -0 1 1.804779e-15 -0 1.551254e-31 4.511946e-16 1 1.551254e-31 4.511946e-16 1 1.551254e-31 4.511946e-16 1 1.551254e-31 4.511946e-16 1 1 -0 -0 1 -0 -0 1 -0 -0 1 -0 -0 0 -1 0 0 -1 0 0 -1 0 0 -1 0 0 0 -1 0 0 -1 0 0 -1 0 0 -1 1 -0 -0 1 -0 -0 1 -0 -0 1 -0 -0 0 0 -1 0 0 -1 0 0 -1 0 0 -1 1 -0 -0 1 -0 -0 1 -0 -0 1 -0 -0 0 0 -1 0 0 -1 0 0 -1 0 0 -1 1 -0 -0 1 -0 -0 1 -0 -0 1 -0 -0 -1 0 0 -1 0 0 -1 0 0 -1 0 0 -1 0 0 -1 0 0 -1 0 0 -1 0 0 -1 0 0 -1 0 0 -1 0 0 -1 0 0 0 0 -1 0 0 -1 0 0 -1 0 0 -1 -5.784814e-17 -2.993406e-32 -1 -5.784814e-17 -2.993406e-32 -1 -5.784814e-17 -2.993406e-32 -1 -5.784814e-17 -2.993406e-32 -1 0 0 -1 0 0 -1 0 0 -1 0 0 -1 1 -0 -0 1 -0 -0 1 -0 -0 1 -0 -0 1 -0 -0 1 -0 -0 1 -0 -0 1 -0 -0 1 -0 -0 1 -0 -0 1 -0 -0 1 -0 -0 0 0 -1 0 0 -1 0 0 -1 0 0 -1 -1 0 0 -1 0 0 0 -1 0 0 -1 0 -4.511946e-16 1 1.127987e-15 -4.511946e-16 1 1.127987e-15 -4.511946e-16 1 1.127987e-15 -4.511946e-16 1 1.127987e-15 0 -1 0 0 -1 0 -0 1 -0 -0 1 -0 -0 1 -0 -0 1 -0 -0 1 -0 -0 1 -0 -0 1 -0 -0 1 -0 0 0 -1 0 0 -1 -1.143528e-17 -1 3.759955e-16 -1.143528e-17 -1 3.759955e-16 -1.143528e-17 -1 3.759955e-16 -1.143528e-17 -1 3.759955e-16 -1.143528e-17 -1 3.759955e-16 -1.143528e-17 -1 3.759955e-16 -1.143528e-17 -1 3.759955e-16 -1.143528e-17 -1 3.759955e-16 0 0 -1 0 0 -1 0 0 -1 0 0 -1 3.759955e-17 -1.127987e-16 -1 3.759955e-17 -1.127987e-16 -1 3.759955e-17 -1.127987e-16 -1 3.759955e-17 -1.127987e-16 -1 3.759955e-17 -1.127987e-16 -1 -0 1 -0 -0 1 -0 -0 1 -0 -0 1 -0 -0 1 -0 -0 1 -0 -0 1 -0 -0 1 -0 0 -1 0 0 -1 0 0 -1 0 0 -1 0 0 -1 0 0 -1 0 0 -1 0 0 -1 0 -0 1 -0 -0 1 -0 0 0 -1 0 0 -1 -0 1 -0 -0 1 -0 0 -1 0 0 -1 0 0 -1 0 0 -1 0 0 0 -1 0 0 -1 0 0 -1 0 0 -1 -0 1 -0 -0 1 -0 -0 1 -0 -0 1 -0 0 0 -1 0 0 -1 0 0 -1 0 0 -1 0 -1 0 0 -1 0 0 -1 0 0 -1 0 0 -1 0 0 -1 0 0 0 -1 0 0 -1 0 0 -1 0 0 -1 1 2.559075e-17 -3.325319e-16 1 2.559075e-17 -3.325319e-16 1 2.559075e-17 -3.325319e-16 1 2.559075e-17 -3.325319e-16 1 2.559075e-17 -3.325319e-16 1 2.559075e-17 -3.325319e-16 1 2.559075e-17 -3.325319e-16 1 2.559075e-17 -3.325319e-16 1 2.559075e-17 -3.325319e-16 1 2.559075e-17 -3.325319e-16 -4.511946e-16 1 1.127987e-15 -4.511946e-16 1 1.127987e-15 -4.511946e-16 1 1.127987e-15 -4.511946e-16 1 1.127987e-15 0 -1 0 0 -1 0 0 -1 0 0 -1 0 0 0 -1 0 0 -1 0 0 -1 0 0 -1 -0 1 -0 -0 1 -0 -0 1 -0 -0 1 -0 0 -1 0 0 -1 0 0 -1 0 0 -1 0 0 0 -1 0 0 -1 0 0 -1 0 0 -1 0 0 -1 -0 1 -0 -0 1 -0 0 0 -1 0 0 -1 0 0 -1 0 0 -1 -0 -0 1 -0 -0 1 -0 -0 1 -0 -0 1 -0 -0 1 -0 -0 1 -0 -0 1 -0 -0 1 -1 1.382693e-16 7.519911e-16 -1 1.382693e-16 7.519911e-16 -1 1.382693e-16 7.519911e-16 -1 1.382693e-16 7.519911e-16 -1 1.382693e-16 7.519911e-16 -1 1.382693e-16 7.519911e-16 -1 1.382693e-16 7.519911e-16 -1 1.382693e-16 7.519911e-16 -0 -0 1 -0 -0 1 -0 -0 1 -0 -0 1 -0 1 -0 -0 1 -0 0 0 -1 0 0 -1 0 0 -1 0 0 -1 0 -1 0 0 -1 0 0 0 -1 0 0 -1 0 0 -1 0 0 -1 1 -0 -0 1 -0 -0 -0 1 -0 -0 1 -0 -0 1 -0 -0 1 -0 0 -1 0 0 -1 0 0 -1 0 0 -1 0 0 0 -1 0 0 -1 0 0 -1 0 0 -1 -0 1 -0 -0 1 -0 -0 1 -0 -0 1 -0 0 -1 0 0 -1 0 0 -1 0 0 -1 0 0 0 -1 0 0 -1 0 0 -1 0 0 -1 -1 0 0 -1 0 0 1 -0 -0 1 -0 -0 -0 1 -0 -0 1 -0 0 0 -1 0 0 -1 0 0 -1 0 0 -1 0 -1 0 0 -1 0 -0 -0 1 -0 -0 1 -0 -0 1 -0 -0 1 -0 -0 1 -0 -0 1 -0 -0 1 -0 -0 1 0 -1 0 0 -1 0 0 -1 0 0 0 -1 0 0 -1 0 0 -1 0 0 -1 0 0 -1 0 0 -1 -0 1 -0 -0 1 -0 -0 -0 1 -0 -0 1 -0 -0 1 -0 -0 1 -0 -0 1 -0 -0 1 -0 -0 1 -0 -0 1 -0 1 -0 -0 1 -0 0 -1 0 0 -1 0 0 0 -1 0 0 -1 0 0 -1 0 0 -1 -0 -0 1 -0 -0 1 -0 -0 1 -0 -0 1 -0 -0 1 -0 -0 1 -0 -0 1 -0 -0 1</float_array>
                    <technique_common>
                        <accessor count="665" source="#ID14" stride="3">
                            <param name="X" type="float" />
                            <param name="Y" type="float" />
                            <param name="Z" type="float" />
                        </accessor>
                    </technique_common>
                </source>
                <source id="ID12">
                    <float_array id="ID15" count="896">-0.04873853 1.114149 0.001261473 0.8356121 0.001261473 1.114149 -0.04873853 0.8356121 0.001261473 0.3342448 -0.04873853 0.2785374 0.001261473 0.2785374 -0.2437295 0.2785374 -0.2937295 0.2785374 -0.4887205 0.2785374 -0.5387205 0.2785374 -0.5387205 0.3342448 -0.2437295 1.114149 -0.2437295 0.8356121 0.5387205 0.3342448 0.4887205 0.2785374 0.5387205 0.2785374 0.2937295 0.2785374 0.04873853 0.2785374 0.2437295 0.2785374 -0.001261473 0.2785374 -0.001261473 0.3342448 -0.2 0.3342448 -0.15 0.2785374 -0.15 0.3342448 -0.2 0.2785374 0.04873853 1.114149 -0.001261473 1.253418 -0.001261473 1.114149 0.04873853 1.253418 0.5387205 0.8356121 -0.001261473 0.8356121 0.5387205 1.114149 0.2 0.2785374 0.15 0.3342448 0.15 0.2785374 0.2 0.3342448 -0.5387205 1.114149 -0.4887205 0.8356121 -0.4887205 1.114149 -0.5387205 0.8356121 0.4887205 1.253418 0.4887205 1.114149 0.5387205 1.253418 -0.2937295 0.8356121 -0.2937295 1.114149 0.2937295 1.114149 0.2437295 1.253418 0.2437295 1.114149 0.2937295 1.253418 -0.05 0.2785374 0 0.2228299 0 0.2785374 -0.05 0.2228299 -0.075 0.2785374 -0.15 0.2228299 -0.125 0.2785374 -0.2 0.2228299 -0.225 0.2785374 -0.3 0.2228299 -0.275 0.2785374 -0.3 0.2785374 -0.35 0.2785374 -0.35 0.2228299 0.05 0.2228299 -2.587125e-19 0.2785374 -2.587125e-19 0.2228299 0.05 0.2785374 0.075 0.2785374 0.15 0.2228299 0.125 0.2785374 0.15 0.2785374 0.2 0.2228299 0.2 0.2785374 0.3 0.2228299 0.225 0.2785374 0.275 0.2785374 0.3 0.2785374 0.35 0.2228299 0.35 0.2785374 0.4887205 0.6963434 0.4887205 0.8356121 0.5387205 0.6963434 -0.001261473 0.6963434 0.04873853 0.8356121 0.04873853 0.6963434 0.2937295 0.6963434 0.2437295 0.8356121 0.2437295 0.6963434 0.2937295 0.8356121 -0.05 0.2785374 1.300662e-19 0.2228299 1.300662e-19 0.2785374 -0.04 0.2228299 -0.05 0.2228299 -0.075 0.2785374 -0.15 0.2228299 -0.1 0.2785374 -0.15 0.2785374 -0.2 0.2785374 -0.2 0.2228299 -0.225 0.2785374 -0.3 0.2228299 -0.275 0.2785374 -0.3 0.2785374 -0.35 0.2785374 -0.35 0.2228299 0.5387205 0.3342448 0.4887205 0.2785374 0.5387205 0.2785374 0.2937295 0.2785374 0.04873853 0.2785374 0.05 0.2228299 -5.719243e-18 0.2785374 -5.719243e-18 0.2228299 0.05 0.2785374 0.15 0.2228299 0.075 0.2785374 0.125 0.2785374 0.15 0.2785374 0.2 0.2228299 0.2 0.2785374 0.3 0.2228299 0.225 0.2785374 0.275 0.2785374 0.3 0.2785374 0.35 0.2228299 0.35 0.2785374 -0.05 0.2785374 4.929004e-16 0.2228299 4.929004e-16 0.2785374 -0.05 0.2228299 -0.075 0.2785374 -0.15 0.2228299 -0.125 0.2785374 -0.15 0.2785374 -0.2 0.2785374 -0.2 0.2228299 -0.225 0.2785374 -0.3 0.2228299 -0.275 0.2785374 -0.3 0.2785374 -0.35 0.2785374 -0.35 0.2228299 0.05 0.2228299 -1.450025e-16 0.2785374 -1.450025e-16 0.2228299 0.05 0.2785374 0.075 0.2785374 0.15 0.2228299 0.125 0.2785374 0.15 0.2785374 0.2 0.2228299 0.2 0.2785374 0.3 0.2228299 0.225 0.2785374 0.275 0.2785374 0.3 0.2785374 0.35 0.2228299 0.35 0.2785374 -0.2937295 0.2785374 -0.2437295 0 -0.2437295 0.2785374 -0.2937295 0 0 0.1114149 -0.05 0.1114149 0.2937295 0.2785374 0.2437295 0.2228299 0.2937295 0.2228299 0.2437295 0.2785374 -0.04873853 0.2785374 -0.04873853 0 0.2937295 0.2785374 0.2437295 0.417806 0.2437295 0.2785374 0.2937295 0.417806 -0.04873853 0.6963434 -0.2437295 0.417806 -0.04873853 0.417806 -0.2437295 0.6963434 -0.04873853 1.531955 -0.2437295 1.253418 -0.04873853 1.253418 -0.2437295 1.531955 0.2937295 1.531955 0.2437295 1.671224 0.2437295 1.531955 0.2937295 1.671224 -0.2437295 1.949762 -0.04873853 1.671224 -0.04873853 1.949762 -0.2437295 1.671224 -0.2937295 0.2228299 -0.2437295 0.2228299 -0.2937295 0.2785374 -0.2937295 1.949762 -0.2937295 1.671224 -0.3 0.1114149 -0.35 0.1114149 -0.2937295 1.114149 -0.2937295 0.8356121 -0.15 0.1114149 -0.2 0.1114149 0.04873853 0.2785374 -0.001261473 0.417806 -0.001261473 0.2785374 0.04873853 0.417806 0.04873853 0.2785374 -0.001261473 0.2228299 0.04873853 0.2228299 -0.001261473 0.2785374 -0.04873853 0.2785374 0.001261473 0.2228299 0.001261473 0.2785374 -0.04873853 4.268193e-17 0.001261473 4.268193e-17 0.05 0.1114149 5.497641e-18 0.2228299 5.497641e-18 0.1114149 0.05 0.2228299 -0.04873853 0.8356121 0.001261473 0.2785374 0.001261473 0.8356121 -0.04873853 1.114149 0.001261473 1.114149 0.2 0.1114149 0.15 0.2228299 0.15 0.1114149 0.2 0.2228299 -0.04873853 1.671224 0.001261473 1.671224 0.0002703156 1.949762 0.001261473 1.949762 0.3477778 0.1114149 0.3 0.2228299 0.3 0.1114149 0.35 0.2228299 0.35 0.1114149 0.001261473 0.2785374 0.0002703156 0.2228299 0.001261473 0.2228299 -0.04873853 0.2228299 0.04873853 1.531955 -0.001261473 1.671224 -0.001261473 1.531955 0.04873853 1.671224 0.001261473 0.3342448 -0.04873853 0.2785374 -0.2437295 0.2785374 -0.2937295 0.2785374 -0.5387205 0.2785374 -0.4887205 0.2785374 -0.5387205 0.3342448 -0.35 0.3342448 -0.3 0.3342448 -0.35 0.2228299 -0.04 0.2228299 6.443431e-19 0.1114149 6.443431e-19 0.2228299 -0.05 0.1114149 -0.05 0.3342448 0 0.3342448 -0.125 0.3342448 -0.075 0.2785374 -0.075 0.3342448 -0.1 0.2785374 -0.125 0.2785374 -0.275 0.3342448 -0.225 0.3342448 0.001261473 1.531955 0.001261473 1.253418 -0.2937295 1.531955 -0.2937295 1.253418 -0.4887205 1.531955 -0.4887205 1.253418 -0.5387205 1.531955 -0.5387205 1.253418 0.275 0.2785374 0.225 0.3342448 0.225 0.2785374 0.275 0.3342448 0.5387205 1.531955 -0.4887205 0.2785374 -0.5387205 0.2228299 -0.4887205 0.2228299 0.35 0.2785374 0.3 0.3342448 0.3 0.2785374 0.35 0.3342448 0.4887205 1.671224 0.4887205 1.531955 0.5387205 1.671224 0.125 0.2785374 0.075 0.3342448 0.075 0.2785374 0.125 0.3342448 0.4887205 0.2785374 0.5387205 0.417806 0.4887205 0.417806 0.05 0.2785374 0.05 0.3342448 0.5387205 0.2785374 0.4887205 0.2228299 0.5387205 0.2228299 0.4887205 0.2785374 -0.5387205 0.2785374 -0.4887205 0 -0.4887205 0.2785374 -0.5387205 0 0.05 0.1114149 0.05 0.2228299 -0.4887205 0.8356121 -0.5387205 1.114149 -0.4887205 1.114149 -0.5387205 1.671224 -0.4887205 1.671224 -0.5387205 1.949762 -0.4887205 1.949762 0.35 0.1114149 0.3 0.2228299 0.3 0.1114149 0.35 0.2228299 -0.3 0.2228299 -0.05 0.1114149 -0.4887205 0.2785374 -0.2937295 0.2785374 -0.4887205 0 -0.4887205 0.6963434 -0.2937295 0.417806 -0.2937295 0.6963434 -0.4887205 0.417806 -0.4887205 1.949762 -0.2937295 1.671224 -0.2937295 1.949762 0.05 0.1114149 -0.2437295 0.2785374 0 0.05570747 -0.35 0.05570747 0.2437295 0.1114149 0.2937295 0.1114149 -0.2437295 0.2228299 -0.2937295 0.1114149 -0.2437295 0.1114149 -0.2937295 0.2228299 -0.04873853 0.2785374 0.001261473 0.2785374 -0.2937295 0.2785374 -0.4887205 0.2785374 -0.5387205 0.2785374 0.001261473 0 0.001261473 0.2785374 0.5387205 0.3342448 0.4887205 0.2785374 0.5387205 0.2785374 0.2937295 0.2785374 0.2437295 0.2785374 0.04873853 0.2785374 -0.001261473 0.3342448 -0.001261473 0.2785374 0.001261473 0.6963434 0.001261473 0.417806 0.001261473 0.5570747 -0.4887205 0.2785374 0.4887205 0.2785374 0.2937295 0.2785374 -0.001261473 0.2785374 -0.001261473 0.3342448 -0.2937295 0.1114149 -0.2437295 0.1114149 0.2437295 0.2228299 -0.001261473 0.1114149 0.04873853 0.1114149 0.001261473 0.2785374 -0.04873853 0 0.3 0.05570747 -1.247256e-18 0.1114149 -1.247256e-18 0.05570747 0.05 0.1114149 0.15 0.1114149 0.2 0.1114149 0.3 0.1114149 0.35 0.05570747 0.3477778 0.1114149 0.35 0.1114149 0.001261473 0.2228299 -0.04873853 0.1114149 0.001261473 0.1114149 -0.04873853 0.2228299 0.04873853 0.2228299 -0.001261473 0.1114149 0.04873853 0.1114149 -0.001261473 0.2228299 0.001261473 0.2228299 -0.04873853 0.1114149 0.001261473 0.1114149 -0.04873853 0.2228299 0.04873853 0.1114149 -0.001261473 0.2228299 -0.04873853 1.937382 -0.04873853 0.1114149 -0.5387205 0.6963434 -0.5387205 0.417806 0.5387205 0.417806 -0.001261473 0.417806 -0.001261473 1.949762 0.5387205 1.949762 1.74423e-19 0.05570747 1.74423e-19 0.1114149 -0.35 0.05570747 0.5387205 0 -0.001261473 0.2785374 -0.001261473 0 0.5387205 0.2785374 -0.5387205 0.1114149 -0.4887205 0.1114149 0.4887205 0.1114149 0.5387205 0.1114149 0.35 0.05570747 -0.2937295 0.05570747 -0.2437295 0.05570747 0.2437295 0.05570747 0.2937295 0.05570747 0.2937295 0.2785374 0.2437295 0.2785374 0.2937295 0.8356121 0.2937295 1.114149 0.2937295 1.671224 0.02373853 0.05570747 0.04873853 0.05570747 -0.001261473 0.05570747 -0.02373853 0 -0.04873853 0.05570747 0.001261473 0.05570747 0.04873853 1.114149 -0.001261473 1.114149 0.04873853 1.671224 0.04873853 0.2785374 -0.001261473 0.8356121 -0.001261473 0.2785374 0.04873853 0.8356121 -0.5387205 0.05570747 -0.4887205 0.05570747 0.4887205 0.05570747 0.5387205 0.05570747 0.5387205 1.114149 0.4887205 1.114149 0.4887205 0.8356121 0.4887205 0.2785374</float_array>
                    <technique_common>
                        <accessor count="448" source="#ID15" stride="2">
                            <param name="S" type="float" />
                            <param name="T" type="float" />
                        </accessor>
                    </technique_common>
                </source>
                <vertices id="ID11">
                    <input semantic="POSITION" source="#ID9" />
                    <input semantic="NORMAL" source="#ID10" />
                </vertices>
                <triangles count="462" material="Material2">
                    <input offset="0" semantic="VERTEX" source="#ID11" />
                    <input offset="1" semantic="TEXCOORD" source="#ID12" />
                    <p>0 0 1 1 2 2 1 1 0 0 3 3 4 4 5 5 6 6 5 5 4 4 7 7 7 7 4 4 8 8 8 8 4 4 9 9 9 9 4 4 10 10 10 10 4 4 11 11 12 12 3 3 0 0 3 3 12 12 13 13 14 14 15 15 16 16 15 15 14 14 17 17 17 17 18 18 19 19 18 18 17 17 20 20 20 20 17 17 21 21 21 21 17 17 14 14 22 22 23 23 24 24 23 23 22 22 25 25 26 26 27 27 28 28 27 27 26 26 29 29 30 30 31 28 32 31 31 28 30 30 33 32 34 33 35 34 36 35 35 34 34 33 37 36 38 37 39 38 40 39 39 38 38 37 41 40 42 32 43 41 44 42 43 41 42 32 45 43 46 39 47 44 48 45 47 44 46 39 49 38 50 46 51 47 52 48 51 47 50 46 53 49 54 45 55 13 56 12 55 13 54 45 57 44 58 50 59 51 60 52 59 51 58 50 61 53 61 53 58 50 62 54 61 53 62 54 63 55 63 55 62 54 64 56 63 55 64 56 65 23 63 55 65 23 66 25 63 55 66 25 67 57 67 57 66 25 68 58 67 57 68 58 69 59 69 59 68 58 70 60 69 59 70 60 71 61 69 59 71 61 72 62 69 59 72 62 73 63 74 64 75 65 76 66 75 65 74 64 77 67 77 67 74 64 78 68 78 68 74 64 79 69 78 68 79 69 80 70 80 70 79 69 81 71 81 71 79 69 82 72 81 71 82 72 83 73 83 73 82 72 84 74 83 73 84 74 85 75 85 75 84 74 86 76 86 76 84 74 87 77 87 77 84 74 88 78 87 77 88 78 89 79 90 80 91 30 92 81 91 30 90 80 93 82 94 83 95 84 96 31 95 84 94 83 97 85 98 86 99 87 100 88 99 87 98 86 101 89 102 90 103 91 104 92 103 91 102 90 105 93 105 93 102 90 106 94 106 94 102 90 107 95 106 94 107 95 108 96 108 96 107 95 109 97 108 96 109 97 110 56 108 96 110 56 111 98 108 96 111 98 112 99 108 96 112 99 113 100 113 100 112 99 114 101 113 100 114 101 115 102 115 102 114 101 116 103 115 102 116 103 117 104 115 102 117 104 118 105 115 102 118 105 119 106 120 107 121 108 122 109 121 108 120 107 123 110 123 110 120 107 124 19 124 19 120 107 125 111 125 111 120 107 126 20 126 20 120 107 127 21 128 112 129 113 130 114 129 113 128 112 131 115 131 115 128 112 132 116 131 115 132 116 133 117 133 117 132 116 134 118 134 118 132 116 135 119 135 119 132 116 136 120 135 119 136 120 137 121 137 121 136 120 138 122 137 121 138 122 139 123 139 123 138 122 140 124 140 124 138 122 141 125 141 125 138 122 142 126 141 125 142 126 143 127 144 128 145 129 146 130 145 129 144 128 147 131 147 131 144 128 148 132 147 131 148 132 149 133 149 133 148 132 150 134 149 133 150 134 151 135 149 133 151 135 152 136 149 133 152 136 153 137 153 137 152 136 154 138 153 137 154 138 155 139 155 139 154 138 156 140 155 139 156 140 157 141 155 139 157 141 158 142 155 139 158 142 159 143 160 144 161 145 162 146 161 145 160 144 163 147 163 147 160 144 164 148 164 148 160 144 165 149 164 148 165 149 166 150 166 150 165 149 167 151 167 151 165 149 168 152 167 151 168 152 169 153 169 153 168 152 170 154 169 153 170 154 171 155 171 155 170 154 172 156 172 156 170 154 173 157 173 157 170 154 174 158 173 157 174 158 175 159 176 160 177 161 178 162 177 161 176 160 179 163 61 53 180 164 59 51 180 164 61 53 181 165 182 166 183 167 184 168 183 167 182 166 185 169 186 170 187 161 188 171 187 161 186 170 189 162 190 172 191 173 192 174 191 173 190 172 193 175 194 176 195 177 196 178 195 177 194 176 197 179 198 180 199 181 200 182 199 181 198 180 201 183 202 184 203 185 204 186 203 185 202 184 205 187 206 188 207 189 208 190 207 189 206 188 209 191 210 7 211 192 212 193 211 192 210 7 213 194 214 195 215 191 216 188 215 191 214 195 217 196 73 63 218 197 69 59 218 197 73 63 219 198 220 196 221 12 222 191 221 12 220 196 223 199 224 199 225 13 226 12 225 13 224 199 227 200 67 57 228 201 63 55 228 201 67 57 229 202 227 200 178 162 225 13 178 162 227 200 176 160 230 203 231 204 232 205 231 204 230 203 233 206 234 207 235 208 236 209 235 208 234 207 237 210 238 211 239 212 240 213 239 212 238 211 241 214 241 214 242 215 239 212 243 216 244 217 245 218 244 217 243 216 246 219 247 220 248 221 249 222 248 221 247 220 250 211 251 223 249 222 252 224 249 222 251 223 247 220 253 225 254 226 255 227 254 226 253 225 256 228 257 229 258 224 259 230 258 224 257 229 260 223 261 231 262 230 263 232 262 230 261 231 264 229 264 229 261 231 265 190 266 233 267 234 268 235 267 234 266 233 269 236 269 236 266 233 270 237 271 238 272 239 273 240 272 239 271 238 274 241 274 241 271 238 275 5 276 242 277 243 278 244 277 243 276 242 279 245 280 246 281 247 282 238 281 247 280 246 283 248 283 248 280 246 284 249 284 249 285 250 286 251 285 250 284 249 287 252 287 252 284 249 280 246 288 253 289 61 290 254 289 61 288 253 291 62 292 255 293 197 294 59 293 197 292 255 295 198 296 57 297 201 298 55 297 201 296 57 299 202 300 256 301 257 302 258 301 257 300 256 303 259 303 259 300 256 304 53 305 260 306 52 307 261 306 52 305 260 308 50 309 262 310 263 311 264 310 263 309 262 312 265 312 265 309 262 313 266 314 267 315 58 316 268 315 58 314 267 317 60 318 269 200 182 319 270 200 182 318 269 198 180 320 271 199 181 201 183 199 181 320 271 321 272 322 273 321 272 320 271 321 272 322 273 323 274 324 275 323 274 322 273 323 274 324 275 325 276 326 277 327 278 328 279 327 278 326 277 329 280 330 43 331 244 332 27 331 244 330 43 333 281 334 282 335 283 336 284 335 283 334 282 337 250 338 285 339 286 340 287 339 286 338 285 341 288 342 281 343 289 344 290 343 289 342 281 345 291 346 292 347 293 348 294 347 293 346 292 349 295 350 296 351 297 352 298 351 297 350 296 353 16 354 299 355 261 356 52 355 261 354 299 357 300 358 301 359 302 360 303 359 302 358 301 361 304 362 305 363 306 364 307 363 306 362 305 365 308 366 309 367 51 368 164 367 51 366 309 369 310 370 40 364 307 371 311 364 307 370 40 362 305 372 312 371 311 373 313 371 311 372 312 370 40 374 225 375 226 376 227 375 226 374 225 377 228 378 314 373 313 379 315 373 313 378 314 372 312 380 316 379 315 381 317 379 315 380 316 378 314 382 318 383 319 384 320 383 319 382 318 385 321 386 63 387 197 388 322 387 197 386 63 389 198 390 57 391 201 392 55 391 201 390 57 393 202 394 53 395 164 396 51 395 164 394 53 397 323 398 324 399 163 400 325 399 163 398 324 401 326 402 327 403 328 404 329 403 328 402 327 405 330 406 331 407 332 408 333 407 332 406 331 409 315 410 318 411 319 412 320 411 319 410 318 413 321 414 334 415 51 416 164 415 51 414 334 417 112 418 225 419 226 420 227 419 226 418 225 421 228 422 160 423 161 424 335 423 161 422 160 425 163 181 165 426 336 180 164 426 336 181 165 427 337 427 337 181 165 228 201 427 337 228 201 229 202 427 337 229 202 218 197 427 337 218 197 219 198 184 168 428 338 429 339 428 338 184 168 183 167 430 340 431 341 432 342 431 341 430 340 433 343 434 14 361 304 358 301 361 304 434 14 182 166 182 166 434 14 185 169 185 169 434 14 234 207 234 207 434 14 237 210 237 210 434 14 435 21 436 4 437 344 438 345 437 344 436 4 439 248 439 248 436 4 440 346 440 346 436 4 441 347 441 347 436 4 442 348 442 348 436 4 443 252 400 325 187 161 189 162 187 161 400 325 399 163 186 170 444 349 445 350 444 349 186 170 188 171 446 351 447 352 448 353 447 352 446 351 449 354 449 354 446 351 450 355 450 355 446 351 451 356 451 356 452 357 453 358 452 357 451 356 446 351 454 329 455 177 456 179 455 177 454 329 457 328 458 359 459 360 460 361 459 360 458 359 461 178 461 178 458 359 462 176 463 246 464 247 465 238 464 247 463 246 466 7 466 7 463 246 467 194 467 194 463 246 468 362 468 362 463 246 469 250 469 250 463 246 470 252 471 14 472 363 473 16 472 363 471 14 474 364 474 364 471 14 475 19 475 19 471 14 476 18 476 18 471 14 477 365 477 365 471 14 478 366 479 246 275 5 271 238 275 5 479 246 210 7 210 7 479 246 213 194 213 194 479 246 334 282 334 282 479 246 337 250 337 250 479 246 480 252 408 333 209 191 206 188 209 191 408 333 407 332 208 190 481 230 482 232 481 230 208 190 207 189 212 193 483 367 484 368 483 367 212 193 211 192 485 168 486 338 487 339 486 338 485 168 488 369 489 195 490 191 491 188 490 191 489 195 492 196 493 193 494 367 495 368 494 367 493 193 496 192 497 199 498 13 499 12 498 13 497 199 500 200 501 168 502 338 503 339 502 338 501 168 504 167 236 209 505 370 506 371 505 370 236 209 235 208 507 211 508 349 509 372 508 349 507 211 510 373 511 374 512 375 513 376 512 375 511 374 514 377 514 377 511 374 515 378 515 378 511 374 516 379 516 379 511 374 517 380 517 380 511 374 518 381 517 380 518 381 519 382 519 382 518 381 520 383 521 384 522 385 523 386 522 385 521 384 524 387 525 388 526 389 527 390 526 389 525 388 528 391 529 223 530 222 531 224 530 222 529 223 532 220 533 392 534 393 535 394 534 393 533 392 536 395 537 209 538 389 539 396 538 389 537 209 540 397 541 398 542 230 543 232 542 230 541 398 544 229 541 398 543 232 545 190 273 240 546 399 547 394 546 399 273 240 274 241 274 241 273 240 272 239 548 400 549 330 550 327 549 330 548 400 551 401 552 402 553 83 554 403 553 83 552 402 555 82 556 291 557 404 558 243 557 404 556 291 559 405 560 165 561 406 562 407 561 406 560 165 563 408 563 408 560 165 564 201 563 408 564 201 565 202 563 408 565 202 566 197 563 408 566 197 567 198 568 409 569 410 570 411 569 410 568 409 571 412 336 284 572 413 573 414 572 413 336 284 335 283 574 316 409 315 406 331 409 315 574 316 575 314 576 305 401 326 398 324 401 326 576 305 577 308 360 303 578 415 579 416 578 415 360 303 359 302 580 305 581 306 582 307 581 306 580 305 583 308 584 417 368 164 585 336 368 164 584 417 366 309 366 309 584 417 376 227 376 227 584 417 374 225 374 225 584 417 384 320 384 320 584 417 382 318 586 284 587 413 588 414 587 413 586 284 589 283 590 303 591 415 592 416 591 415 590 303 593 302 594 312 595 311 596 313 595 311 594 312 597 40 598 284 599 413 600 414 599 413 598 284 601 283 602 303 603 415 604 416 603 415 602 303 605 302 606 316 607 315 608 317 607 315 606 316 609 314 397 323 610 336 395 164 610 336 397 323 611 337 611 337 397 323 391 201 611 337 391 201 393 202 611 337 393 202 387 197 611 337 387 197 389 198 612 417 416 164 613 336 416 164 612 417 414 334 414 334 612 417 420 227 420 227 612 417 418 225 418 225 612 417 412 320 412 320 612 417 410 318 484 368 614 418 615 419 614 418 484 368 483 367 616 195 617 161 618 188 617 161 616 195 619 163 429 339 620 420 621 421 620 420 429 339 428 338 622 422 623 87 624 423 623 87 622 422 625 424 626 425 627 185 628 48 627 185 626 425 629 426 506 371 630 427 631 428 630 427 506 371 632 429 632 429 506 371 505 370 633 232 634 430 635 349 634 430 633 232 636 190 634 430 636 190 637 373 637 373 636 190 638 189 547 394 639 431 640 432 639 431 547 394 546 399 641 433 642 243 643 434 642 243 641 433 644 435 645 436 646 437 647 438 646 437 645 436 648 439 573 414 649 440 650 441 649 440 573 414 572 413 579 416 651 442 652 443 651 442 579 416 578 415 653 316 654 306 655 317 654 306 653 316 656 308 657 444 658 289 659 445 658 289 657 444 660 291 661 412 662 446 663 447 662 446 661 412 664 30</p>
                </triangles>
            </mesh>
        </geometry>
    </library_geometries>
    <library_materials>
        <material id="ID4" name="material_3">
            <instance_effect url="#ID5" />
        </material>
    </library_materials>
    <library_effects>
        <effect id="ID5">
            <profile_COMMON>
                <newparam sid="ID7">
                    <surface type="2D">
                        <init_from>ID6</init_from>
                    </surface>
                </newparam>
                <newparam sid="ID8">
                    <sampler2D>
                        <source>ID7</source>
                    </sampler2D>
                </newparam>
                <technique sid="COMMON">
                    <lambert>
                        <diffuse>
                            <texture texture="ID8" texcoord="UVSET0" />
                        </diffuse>
                    </lambert>
                </technique>
            </profile_COMMON>
        </effect>
    </library_effects>
    <library_images>
        <image id="ID6">
            <init_from>pallet/material_3.jpg</init_from>
        </image>
    </library_images>
    <scene>
        <instance_visual_scene url="#ID2" />
    </scene>
</COLLADA>
